^K:\COURSES\MIRCO\MICROPROCESSOR_SOURCE_CODES-\ASSEMBLY\TEST_FUNCTIONS\TEST_FUNCTIONS\DEBUG\MAIN.OBJ|K:\COURSES\MIRCO\MICROPROCESSOR_SOURCE_CODES-\ASSEMBLY\TEST_FUNCTIONS\TEST_FUNCTIONS\LINEAR_SEARCH.OBJ
K:\COURSES\MIRCO\MICROPROCESSOR_SOURCE_CODES-\ASSEMBLY\TEST_FUNCTIONS\DEBUG\TEST_FUNCTIONS.EXE
K:\COURSES\MIRCO\MICROPROCESSOR_SOURCE_CODES-\ASSEMBLY\TEST_FUNCTIONS\DEBUG\TEST_FUNCTIONS.ILK
K:\COURSES\MIRCO\MICROPROCESSOR_SOURCE_CODES-\ASSEMBLY\TEST_FUNCTIONS\DEBUG\TEST_FUNCTIONS.PDB
